<?xml version="1.0" encoding="UTF-8" standalone="no"?>
<svg
   xmlns:dc="http://purl.org/dc/elements/1.1/"
   xmlns:cc="http://creativecommons.org/ns#"
   xmlns:rdf="http://www.w3.org/1999/02/22-rdf-syntax-ns#"
   xmlns:svg="http://www.w3.org/2000/svg"
   xmlns="http://www.w3.org/2000/svg"
   xmlns:sodipodi="http://sodipodi.sourceforge.net/DTD/sodipodi-0.dtd"
   xmlns:inkscape="http://www.inkscape.org/namespaces/inkscape"
   version="1.1"
   id="svg2"
   viewBox="0 0 198.15713 272.30896"
   height="76.851639mm"
   width="55.924347mm"
   inkscape:version="0.91 r13725"
   sodipodi:docname="layer11.svg">
  <sodipodi:namedview
     pagecolor="#ffffff"
     bordercolor="#666666"
     borderopacity="1"
     objecttolerance="10"
     gridtolerance="10"
     guidetolerance="10"
     inkscape:pageopacity="0"
     inkscape:pageshadow="2"
     inkscape:window-width="640"
     inkscape:window-height="480"
     id="namedview18"
     showgrid="false"
     inkscape:zoom="0.86666264"
     inkscape:cx="99.078567"
     inkscape:cy="-1543.8851"
     inkscape:window-x="0"
     inkscape:window-y="0"
     inkscape:window-maximized="0"
     inkscape:current-layer="svg2" />
  <defs
     id="defs4" />
  <metadata
     id="metadata7">
    <rdf:RDF>
      <cc:Work
         rdf:about="">
        <dc:format>image/svg+xml</dc:format>
        <dc:type
           rdf:resource="http://purl.org/dc/dcmitype/StillImage" />
        <dc:title />
      </cc:Work>
    </rdf:RDF>
  </metadata>
  <g
     transform="translate(-276.79215,449.99316)"
     style="display:inline"
     id="layer11">
    <path
       id="rect4136-9-2"
       d="m 304.29215,-449.99316 143.15713,0 c 27.50215,0 27.5,0.003 27.5,25 l 0,222.30896 c 0,25.03113 0.0342,25 -27.5,25 l -143.15713,0 c -27.49856,0 -27.5,0.001 -27.5,-25 l 0,-222.30896 c 0,-25.00625 -0.007,-25 27.5,-25 z"
       style="color:#000000;clip-rule:nonzero;display:inline;overflow:visible;visibility:visible;opacity:1;isolation:auto;mix-blend-mode:normal;color-interpolation:sRGB;color-interpolation-filters:linearRGB;solid-color:#000000;solid-opacity:1;fill:#ffffff;fill-opacity:1;fill-rule:nonzero;stroke:none;stroke-width:0.27000001;stroke-linecap:butt;stroke-linejoin:miter;stroke-miterlimit:10;stroke-dasharray:none;stroke-dashoffset:0;stroke-opacity:1;color-rendering:auto;image-rendering:auto;shape-rendering:auto;text-rendering:auto;enable-background:accumulate"
       inkscape:connector-curvature="0" />
    <path
       d="m 292.15354,-414.73269 q 3.01159,0 4.43296,3.21714 0.18294,0.73697 0.22517,1.53063 0,1.65816 -1.68876,3.92577 l -0.84436,0.85034 0.0422,0 q 1.0414,-0.39683 2.22351,-0.39683 l 0.26739,0 q 3.34934,0 4.70034,2.86283 0.32367,0.93539 0.32367,1.78573 0,2.90536 -2.94124,4.37928 -0.56291,0.17007 -1.56207,0.25511 -3.40564,0 -4.827,-3.88325 l -0.0422,0 0,0.12755 q 0,4.86115 1.15397,6.40595 l 0,0.085 -2.92715,0 -0.0844,-0.085 q 1.19619,-1.81407 1.19619,-6.5335 l 0,-0.0426 -0.0423,0 q -1.40729,3.92577 -4.85514,3.92577 -2.68791,0 -4.12336,-2.84866 -0.35181,-0.96373 -0.35181,-1.78573 0,-3.30218 3.46193,-4.47848 0.92881,-0.17007 1.64651,-0.17007 l 0.12667,0 q 1.21025,0 2.30794,0.39683 l 0.0423,0 0,-0.0425 q -1.18212,-1.00626 -1.59024,-1.98413 -0.84437,-1.55899 -0.84437,-2.70695 l 0,-0.19842 q 0,-2.84866 3.02567,-4.32259 0.99917,-0.26927 1.54801,-0.26927 z"
       style="font-style:normal;font-weight:normal;font-size:medium;line-height:125%;font-family:sans-serif;letter-spacing:0px;word-spacing:0px;display:inline;fill:#1a1a1a;fill-opacity:1;stroke:none;stroke-width:1px;stroke-linecap:butt;stroke-linejoin:miter;stroke-opacity:1"
       id="path6333-1-9-91-9"
       inkscape:connector-curvature="0" />
    <path
       d="m 459.58789,-215.79854 q -3.01159,0 -4.43296,-3.21714 -0.18294,-0.73697 -0.22518,-1.53063 0,-1.65816 1.68876,-3.92577 l 0.84437,-0.85034 -0.0422,0 q -1.0414,0.39683 -2.2235,0.39683 l -0.26739,0 q -3.34934,0 -4.70034,-2.86283 -0.32367,-0.93539 -0.32367,-1.78573 0,-2.90536 2.94124,-4.37928 0.56291,-0.17007 1.56207,-0.25511 3.40563,0 4.827,3.88325 l 0.0422,0 0,-0.12755 q 0,-4.86115 -1.15397,-6.40595 l 0,-0.085 2.92715,0 0.0844,0.085 q -1.19619,1.81407 -1.19619,6.5335 l 0,0.0426 0.0423,0 q 1.40729,-3.92577 4.85514,-3.92577 2.68791,0 4.12336,2.84866 0.35181,0.96373 0.35181,1.78573 0,3.30218 -3.46193,4.47848 -0.92881,0.17007 -1.64651,0.17007 l -0.12667,0 q -1.21025,0 -2.30794,-0.39683 l -0.0423,0 0,0.0425 q 1.18212,1.00626 1.59024,1.98413 0.84437,1.55899 0.84437,2.70695 l 0,0.19842 q 0,2.84866 -3.02567,4.32259 -0.99917,0.26927 -1.54801,0.26927 z"
       style="font-style:normal;font-weight:normal;font-size:medium;line-height:125%;font-family:sans-serif;letter-spacing:0px;word-spacing:0px;display:inline;fill:#1a1a1a;fill-opacity:1;stroke:none;stroke-width:1px;stroke-linecap:butt;stroke-linejoin:miter;stroke-opacity:1"
       id="path6333-1-9-9-0-3"
       inkscape:connector-curvature="0" />
    <path
       d="m 330.88404,-429.61639 q 6.99051,0 10.28979,7.46763 0.42464,1.71065 0.52267,3.5529 0,3.84894 -3.91995,9.1125 l -1.95993,1.97383 0.098,0 q 2.4173,-0.92112 5.16121,-0.92112 l 0.62067,0 q 7.7745,0 10.91046,6.64521 0.7513,2.17122 0.7513,4.14503 0,6.74393 -6.82719,10.16519 -1.30663,0.39477 -3.62591,0.59217 -7.90518,0 -11.20442,-9.01381 l -0.098,0 0,0.29607 q 0,11.28371 2.6786,14.8695 l 0,0.1973 -6.79451,0 -0.19591,-0.1973 q 2.77659,-4.21082 2.77659,-15.16557 l 0,-0.0989 -0.0982,0 q -3.26658,9.1125 -11.26975,9.1125 -6.23917,0 -9.57112,-6.61231 -0.81662,-2.23701 -0.81662,-4.14504 0,-7.66503 8.03584,-10.39545 2.15593,-0.39479 3.82188,-0.39479 l 0.29402,0 q 2.80924,0 5.35719,0.92112 l 0.0982,0 0,-0.0987 q -2.74393,-2.33571 -3.69126,-4.60557 -1.95997,-3.6187 -1.95997,-6.28337 l 0,-0.46058 q 0,-6.61231 7.02319,-10.0336 2.31928,-0.62503 3.59326,-0.62503 z"
       style="font-style:normal;font-weight:normal;font-size:medium;line-height:125%;font-family:sans-serif;letter-spacing:0px;word-spacing:0px;display:inline;fill:#1a1a1a;fill-opacity:1;stroke:none;stroke-width:1px;stroke-linecap:butt;stroke-linejoin:miter;stroke-opacity:1"
       id="path6333-1-4-2-75-9"
       inkscape:connector-curvature="0" />
    <path
       d="m 330.88404,-338.37976 q 6.99051,0 10.28979,7.46763 0.42464,1.71065 0.52267,3.5529 0,3.84894 -3.91995,9.1125 l -1.95993,1.97383 0.098,0 q 2.4173,-0.92112 5.16121,-0.92112 l 0.62067,0 q 7.7745,0 10.91046,6.64521 0.7513,2.17122 0.7513,4.14503 0,6.74393 -6.82719,10.16519 -1.30663,0.39477 -3.62591,0.59217 -7.90518,0 -11.20442,-9.01381 l -0.098,0 0,0.29607 q 0,11.28371 2.6786,14.8695 l 0,0.1973 -6.79451,0 -0.19591,-0.1973 q 2.77659,-4.21082 2.77659,-15.16557 l 0,-0.0989 -0.0982,0 q -3.26658,9.1125 -11.26975,9.1125 -6.23917,0 -9.57112,-6.61231 -0.81662,-2.23701 -0.81662,-4.14504 0,-7.66503 8.03584,-10.39545 2.15593,-0.39479 3.82188,-0.39479 l 0.29402,0 q 2.80924,0 5.35719,0.92112 l 0.0982,0 0,-0.0987 q -2.74393,-2.33571 -3.69126,-4.60557 -1.95997,-3.6187 -1.95997,-6.28337 l 0,-0.46058 q 0,-6.61231 7.02319,-10.0336 2.31928,-0.62503 3.59326,-0.62503 z"
       style="font-style:normal;font-weight:normal;font-size:medium;line-height:125%;font-family:sans-serif;letter-spacing:0px;word-spacing:0px;display:inline;fill:#1a1a1a;fill-opacity:1;stroke:none;stroke-width:1px;stroke-linecap:butt;stroke-linejoin:miter;stroke-opacity:1"
       id="path6333-1-4-2-7-8-2"
       inkscape:connector-curvature="0" />
    <path
       d="m 330.78603,-198.06091 q -6.99051,0 -10.28979,-7.46763 -0.42464,-1.71065 -0.52267,-3.5529 0,-3.84894 3.91995,-9.1125 l 1.95993,-1.97383 -0.098,0 q -2.4173,0.92111 -5.16121,0.92111 l -0.62067,0 q -7.7745,0 -10.91046,-6.64521 -0.7513,-2.17122 -0.7513,-4.14503 0,-6.74393 6.82719,-10.1652 1.30663,-0.39476 3.62591,-0.59217 7.90518,0 11.20442,9.01381 l 0.098,0 0,-0.29607 q 0,-11.28371 -2.6786,-14.86949 l 0,-0.19731 6.79451,0 0.19591,0.19731 q -2.77659,4.21082 -2.77659,15.16557 l 0,0.0989 0.0982,0 q 3.26658,-9.1125 11.26975,-9.1125 6.23917,0 9.57112,6.61231 0.81662,2.23701 0.81662,4.14503 0,7.66503 -8.03584,10.39545 -2.15593,0.39479 -3.82188,0.39479 l -0.29402,0 q -2.80924,0 -5.35719,-0.92111 l -0.0982,0 0,0.0987 q 2.74393,2.33571 3.69126,4.60557 1.95997,3.6187 1.95997,6.28337 l 0,0.46057 q 0,6.61231 -7.02319,10.0336 -2.31928,0.62503 -3.59326,0.62503 z"
       style="font-style:normal;font-weight:normal;font-size:medium;line-height:125%;font-family:sans-serif;letter-spacing:0px;word-spacing:0px;display:inline;fill:#1a1a1a;fill-opacity:1;stroke:none;stroke-width:1px;stroke-linecap:butt;stroke-linejoin:miter;stroke-opacity:1"
       id="path6333-1-4-2-7-6-7-8"
       inkscape:connector-curvature="0" />
    <path
       d="m 420.95571,-429.61639 q 6.99051,0 10.28979,7.46763 0.42464,1.71065 0.52267,3.5529 0,3.84894 -3.91995,9.1125 l -1.95993,1.97383 0.098,0 q 2.4173,-0.92112 5.16121,-0.92112 l 0.62067,0 q 7.7745,0 10.91046,6.64521 0.7513,2.17122 0.7513,4.14503 0,6.74393 -6.82719,10.16519 -1.30663,0.39477 -3.62591,0.59217 -7.90518,0 -11.20442,-9.01381 l -0.098,0 0,0.29607 q 0,11.28371 2.6786,14.8695 l 0,0.1973 -6.79451,0 -0.19591,-0.1973 q 2.77659,-4.21082 2.77659,-15.16557 l 0,-0.0989 -0.0982,0 q -3.26658,9.1125 -11.26975,9.1125 -6.23917,0 -9.57112,-6.61231 -0.81662,-2.23701 -0.81662,-4.14504 0,-7.66503 8.03584,-10.39545 2.15593,-0.39479 3.82188,-0.39479 l 0.29402,0 q 2.80924,0 5.35719,0.92112 l 0.0982,0 0,-0.0987 q -2.74393,-2.33571 -3.69126,-4.60557 -1.95997,-3.6187 -1.95997,-6.28337 l 0,-0.46058 q 0,-6.61231 7.02319,-10.0336 2.31928,-0.62503 3.59326,-0.62503 z"
       style="font-style:normal;font-weight:normal;font-size:medium;line-height:125%;font-family:sans-serif;letter-spacing:0px;word-spacing:0px;display:inline;fill:#1a1a1a;fill-opacity:1;stroke:none;stroke-width:1px;stroke-linecap:butt;stroke-linejoin:miter;stroke-opacity:1"
       id="path6333-1-4-2-1-0-3"
       inkscape:connector-curvature="0" />
    <path
       d="m 420.95571,-338.37976 q 6.99051,0 10.28979,7.46763 0.42464,1.71065 0.52267,3.5529 0,3.84894 -3.91995,9.1125 l -1.95993,1.97383 0.098,0 q 2.4173,-0.92112 5.16121,-0.92112 l 0.62067,0 q 7.7745,0 10.91046,6.64521 0.7513,2.17122 0.7513,4.14503 0,6.74393 -6.82719,10.16519 -1.30663,0.39477 -3.62591,0.59217 -7.90518,0 -11.20442,-9.01381 l -0.098,0 0,0.29607 q 0,11.28371 2.6786,14.8695 l 0,0.1973 -6.79451,0 -0.19591,-0.1973 q 2.77659,-4.21082 2.77659,-15.16557 l 0,-0.0989 -0.0982,0 q -3.26658,9.1125 -11.26975,9.1125 -6.23917,0 -9.57112,-6.61231 -0.81662,-2.23701 -0.81662,-4.14504 0,-7.66503 8.03584,-10.39545 2.15593,-0.39479 3.82188,-0.39479 l 0.29402,0 q 2.80924,0 5.35719,0.92112 l 0.0982,0 0,-0.0987 q -2.74393,-2.33571 -3.69126,-4.60557 -1.95997,-3.6187 -1.95997,-6.28337 l 0,-0.46058 q 0,-6.61231 7.02319,-10.0336 2.31928,-0.62503 3.59326,-0.62503 z"
       style="font-style:normal;font-weight:normal;font-size:medium;line-height:125%;font-family:sans-serif;letter-spacing:0px;word-spacing:0px;display:inline;fill:#1a1a1a;fill-opacity:1;stroke:none;stroke-width:1px;stroke-linecap:butt;stroke-linejoin:miter;stroke-opacity:1"
       id="path6333-1-4-2-7-3-4-0"
       inkscape:connector-curvature="0" />
    <path
       d="m 420.8577,-198.06091 q -6.99051,0 -10.28979,-7.46763 -0.42464,-1.71065 -0.52267,-3.5529 0,-3.84894 3.91995,-9.1125 l 1.95993,-1.97383 -0.098,0 q -2.4173,0.92111 -5.16121,0.92111 l -0.62067,0 q -7.7745,0 -10.91046,-6.64521 -0.7513,-2.17122 -0.7513,-4.14503 0,-6.74393 6.82719,-10.1652 1.30663,-0.39476 3.62591,-0.59217 7.90518,0 11.20442,9.01381 l 0.098,0 0,-0.29607 q 0,-11.28371 -2.6786,-14.86949 l 0,-0.19731 6.79451,0 0.19591,0.19731 q -2.77659,4.21082 -2.77659,15.16557 l 0,0.0989 0.0982,0 q 3.26658,-9.1125 11.26975,-9.1125 6.23917,0 9.57112,6.61231 0.81662,2.23701 0.81662,4.14503 0,7.66503 -8.03584,10.39545 -2.15593,0.39479 -3.82188,0.39479 l -0.29402,0 q -2.80924,0 -5.35719,-0.92111 l -0.0982,0 0,0.0987 q 2.74393,2.33571 3.69126,4.60557 1.95997,3.6187 1.95997,6.28337 l 0,0.46057 q 0,6.61231 -7.02319,10.0336 -2.31928,0.62503 -3.59326,0.62503 z"
       style="font-style:normal;font-weight:normal;font-size:medium;line-height:125%;font-family:sans-serif;letter-spacing:0px;word-spacing:0px;display:inline;fill:#1a1a1a;fill-opacity:1;stroke:none;stroke-width:1px;stroke-linecap:butt;stroke-linejoin:miter;stroke-opacity:1"
       id="path6333-1-4-2-7-6-2-8-1"
       inkscape:connector-curvature="0" />
    <path
       d="m 375.91987,-383.9981 q 6.99051,0 10.28979,7.46763 0.42464,1.71065 0.52267,3.5529 0,3.84894 -3.91995,9.1125 l -1.95993,1.97383 0.098,0 q 2.4173,-0.92112 5.1612,-0.92112 l 0.62068,0 q 7.77449,0 10.91046,6.64521 0.7513,2.17122 0.7513,4.14503 0,6.74393 -6.82719,10.1652 -1.30663,0.39477 -3.62591,0.59217 -7.90518,0 -11.20442,-9.01382 l -0.098,0 0,0.29607 q 0,11.28372 2.6786,14.8695 l 0,0.19731 -6.79451,0 -0.19591,-0.19731 q 2.77659,-4.21082 2.77659,-15.16557 l 0,-0.0989 -0.0982,0 q -3.26658,9.11249 -11.26975,9.11249 -6.23917,0 -9.57112,-6.6123 -0.81662,-2.23702 -0.81662,-4.14504 0,-7.66503 8.03584,-10.39545 2.15593,-0.39479 3.82188,-0.39479 l 0.29402,0 q 2.80924,0 5.35719,0.92112 l 0.0982,0 0,-0.0987 q -2.74393,-2.33571 -3.69126,-4.60558 -1.95997,-3.61869 -1.95997,-6.28337 l 0,-0.46057 q 0,-6.61231 7.02319,-10.0336 2.31928,-0.62503 3.59326,-0.62503 z"
       style="font-style:normal;font-weight:normal;font-size:medium;line-height:125%;font-family:sans-serif;letter-spacing:0px;word-spacing:0px;display:inline;fill:#1a1a1a;fill-opacity:1;stroke:none;stroke-width:1px;stroke-linecap:butt;stroke-linejoin:miter;stroke-opacity:1"
       id="path6333-1-4-2-7-3-1-0-7"
       inkscape:connector-curvature="0" />
    <path
       d="m 298.52416,-441.57438 0,2.26751 -8.21562,20.04613 -2.76046,-0.92015 7.91987,-18.9288 -9.72729,0 0,-2.46469 12.7835,0 z"
       style="font-style:normal;font-variant:normal;font-weight:normal;font-stretch:normal;font-size:29.875px;line-height:125%;font-family:sans-serif;-inkscape-font-specification:'Fira Sans';letter-spacing:0px;word-spacing:0px;display:inline;fill:#1a1a1a;fill-opacity:1;stroke:none;stroke-width:1px;stroke-linecap:butt;stroke-linejoin:miter;stroke-opacity:1"
       id="path7033-9-1"
       inkscape:connector-curvature="0" />
    <path
       d="m 453.21728,-188.95695 0,-2.26751 8.21562,-20.04613 2.76046,0.92015 -7.91987,18.9288 9.72729,0 0,2.46469 -12.7835,0 z"
       style="font-style:normal;font-variant:normal;font-weight:normal;font-stretch:normal;font-size:29.875px;line-height:125%;font-family:sans-serif;-inkscape-font-specification:'Fira Sans';letter-spacing:0px;word-spacing:0px;display:inline;fill:#1a1a1a;fill-opacity:1;stroke:none;stroke-width:1px;stroke-linecap:butt;stroke-linejoin:miter;stroke-opacity:1"
       id="path7033-9-1-5-4-5-7"
       inkscape:connector-curvature="0" />
  </g>
</svg>
