<?xml version="1.0" encoding="UTF-8" standalone="no"?>
<svg
   xmlns:dc="http://purl.org/dc/elements/1.1/"
   xmlns:cc="http://creativecommons.org/ns#"
   xmlns:rdf="http://www.w3.org/1999/02/22-rdf-syntax-ns#"
   xmlns:svg="http://www.w3.org/2000/svg"
   xmlns="http://www.w3.org/2000/svg"
   xmlns:sodipodi="http://sodipodi.sourceforge.net/DTD/sodipodi-0.dtd"
   xmlns:inkscape="http://www.inkscape.org/namespaces/inkscape"
   version="1.1"
   id="svg2"
   viewBox="0 0 198.15713 272.30896"
   height="76.851639mm"
   width="55.924347mm"
   inkscape:version="0.91 r13725"
   sodipodi:docname="layer9.svg">
  <sodipodi:namedview
     pagecolor="#ffffff"
     bordercolor="#666666"
     borderopacity="1"
     objecttolerance="10"
     gridtolerance="10"
     guidetolerance="10"
     inkscape:pageopacity="0"
     inkscape:pageshadow="2"
     inkscape:window-width="448"
     inkscape:window-height="402"
     id="namedview29"
     showgrid="false"
     inkscape:zoom="0.86666264"
     inkscape:cx="99.078567"
     inkscape:cy="-2127.4833"
     inkscape:window-x="0"
     inkscape:window-y="0"
     inkscape:window-maximized="0"
     inkscape:current-layer="svg2" />
  <defs
     id="defs4" />
  <metadata
     id="metadata7">
    <rdf:RDF>
      <cc:Work
         rdf:about="">
        <dc:format>image/svg+xml</dc:format>
        <dc:type
           rdf:resource="http://purl.org/dc/dcmitype/StillImage" />
        <dc:title />
      </cc:Work>
    </rdf:RDF>
  </metadata>
  <g
     transform="translate(-511.22282,741.79227)"
     style="display:inline"
     id="layer9">
    <path
       id="rect4136-0"
       d="m 538.72282,-741.79227 143.15713,0 c 27.50215,0 27.5,0.003 27.5,25 l 0,222.30896 c 0,25.03113 0.0342,25 -27.5,25 l -143.15713,0 c -27.49856,0 -27.5,0.001 -27.5,-25 l 0,-222.30896 c 0,-25.00625 -0.007,-25 27.5,-25 z"
       style="color:#000000;clip-rule:nonzero;display:inline;overflow:visible;visibility:visible;opacity:1;isolation:auto;mix-blend-mode:normal;color-interpolation:sRGB;color-interpolation-filters:linearRGB;solid-color:#000000;solid-opacity:1;fill:#ffffff;fill-opacity:1;fill-rule:nonzero;stroke:none;stroke-width:0.27000001;stroke-linecap:butt;stroke-linejoin:miter;stroke-miterlimit:10;stroke-dasharray:none;stroke-dashoffset:0;stroke-opacity:1;color-rendering:auto;image-rendering:auto;shape-rendering:auto;text-rendering:auto;enable-background:accumulate"
       inkscape:connector-curvature="0" />
    <path
       d="m 529.50426,-720.2263 q 4.63362,1.87316 4.63362,5.91525 0,1.80743 -0.98588,3.25338 -0.95301,1.41309 -2.69472,2.23465 -1.74172,0.7887 -3.9435,0.7887 -2.23465,0 -3.9435,-0.7887 -1.70885,-0.7887 -2.66187,-2.20178 -0.92015,-1.41309 -0.92015,-3.22053 0,-2.03747 1.08447,-3.4177 1.11732,-1.38022 3.25338,-2.30037 -1.74171,-0.88729 -2.59613,-2.13607 -0.82157,-1.28163 -0.82157,-2.99048 0,-1.77458 0.92015,-3.05622 0.95302,-1.28163 2.46469,-1.93888 1.54454,-0.65725 3.28625,-0.65725 1.70885,0 3.22053,0.62438 1.54453,0.62439 2.49755,1.90603 0.95301,1.24877 0.95301,3.02335 0,1.64312 -0.92015,2.82617 -0.92015,1.18305 -2.82618,2.13607 z m -2.92476,-8.24849 q -1.70885,0 -2.72759,0.88729 -0.98587,0.88728 -0.98587,2.53041 0,1.5774 0.95301,2.39896 0.98588,0.82156 3.12194,1.51168 l 0.55866,0.19717 q 1.47881,-0.85442 2.13606,-1.80744 0.65725,-0.95301 0.65725,-2.33323 0,-1.54454 -0.98587,-2.46469 -0.95301,-0.92015 -2.72759,-0.92015 z m -0.0329,18.04151 q 2.03748,0 3.22053,-1.0516 1.21592,-1.0516 1.21592,-2.79331 0,-1.18305 -0.46008,-1.97175 -0.46007,-0.82156 -1.47882,-1.41309 -1.01873,-0.62439 -2.85903,-1.24877 l -0.82157,-0.29577 q -1.64312,0.7887 -2.43182,2.00462 -0.7887,1.18305 -0.7887,2.95762 0,1.80744 1.18305,2.82618 1.18305,0.98587 3.22052,0.98587 z"
       style="font-style:normal;font-variant:normal;font-weight:normal;font-stretch:normal;font-size:29.875px;line-height:125%;font-family:sans-serif;-inkscape-font-specification:'Fira Sans';letter-spacing:0px;word-spacing:0px;display:inline;fill:#ff1900;fill-opacity:1;stroke:none;stroke-width:1px;stroke-linecap:butt;stroke-linejoin:miter;stroke-opacity:1"
       id="path7035-4-19"
       inkscape:connector-curvature="0" />
    <path
       d="m 691.09853,-491.07489 q -4.63362,-1.87316 -4.63362,-5.91525 0,-1.80743 0.98588,-3.25338 0.95301,-1.41309 2.69472,-2.23465 1.74172,-0.7887 3.9435,-0.7887 2.23465,0 3.9435,0.7887 1.70885,0.7887 2.66187,2.20178 0.92015,1.41309 0.92015,3.22053 0,2.03747 -1.08447,3.4177 -1.11732,1.38022 -3.25338,2.30037 1.74171,0.88729 2.59613,2.13607 0.82157,1.28163 0.82157,2.99048 0,1.77458 -0.92015,3.05622 -0.95302,1.28163 -2.46469,1.93888 -1.54454,0.65725 -3.28625,0.65725 -1.70885,0 -3.22053,-0.62438 -1.54453,-0.62439 -2.49755,-1.90603 -0.95301,-1.24877 -0.95301,-3.02335 0,-1.64312 0.92015,-2.82617 0.92015,-1.18305 2.82618,-2.13607 z m 2.92476,8.24849 q 1.70885,0 2.72759,-0.88729 0.98587,-0.88728 0.98587,-2.53041 0,-1.5774 -0.95301,-2.39896 -0.98588,-0.82156 -3.12194,-1.51168 l -0.55866,-0.19717 q -1.47881,0.85442 -2.13606,1.80744 -0.65725,0.95301 -0.65725,2.33323 0,1.54454 0.98587,2.46469 0.95301,0.92015 2.72759,0.92015 z m 0.0329,-18.04151 q -2.03748,0 -3.22053,1.0516 -1.21592,1.0516 -1.21592,2.79331 0,1.18305 0.46008,1.97175 0.46007,0.82156 1.47882,1.41309 1.01873,0.62439 2.85903,1.24877 l 0.82157,0.29577 q 1.64312,-0.7887 2.43182,-2.00462 0.7887,-1.18305 0.7887,-2.95762 0,-1.80744 -1.18305,-2.82618 -1.18305,-0.98587 -3.22052,-0.98587 z"
       style="font-style:normal;font-variant:normal;font-weight:normal;font-stretch:normal;font-size:29.875px;line-height:125%;font-family:sans-serif;-inkscape-font-specification:'Fira Sans';letter-spacing:0px;word-spacing:0px;display:inline;fill:#ff1900;fill-opacity:1;stroke:none;stroke-width:1px;stroke-linecap:butt;stroke-linejoin:miter;stroke-opacity:1"
       id="path7035-4-9-62"
       inkscape:connector-curvature="0" />
    <g
       transform="matrix(0.63407384,0,0,0.63856058,143.05107,-939.26631)"
       id="text6302-4-2-5"
       style="font-style:normal;font-weight:normal;font-size:40px;line-height:125%;font-family:sans-serif;letter-spacing:0px;word-spacing:0px;display:inline;fill:#ff1900;fill-opacity:1;stroke:none;stroke-width:1px;stroke-linecap:butt;stroke-linejoin:miter;stroke-opacity:1">
      <path
         style="fill:#ff1900;fill-opacity:1"
         id="path6330-9-9-4"
         d="m 597.67987,368.4407 q 3.96484,0 6.23047,4.58985 0.82031,1.8164 0.85937,2.77344 l 0.0586,0 q 0.68359,-3.16407 2.48047,-5.25391 2.10937,-2.10938 4.74609,-2.10938 4.08203,0 6.54297,4.375 0.625,1.6211 0.625,3.04688 0,4.88281 -4.0625,9.31641 l -10.33203,12.40234 -0.11719,0 -10.97656,-13.45703 q -3.28125,-4.00391 -3.28125,-8.26172 0,-4.12109 3.88672,-6.54297 1.64062,-0.87891 3.33984,-0.87891 z"
         inkscape:connector-curvature="0" />
    </g>
    <g
       transform="matrix(-0.63407384,0,0,-0.63856058,1077.5517,-272.03489)"
       id="text6302-4-2-6-4"
       style="font-style:normal;font-weight:normal;font-size:40px;line-height:125%;font-family:sans-serif;letter-spacing:0px;word-spacing:0px;display:inline;fill:#ff1900;fill-opacity:1;stroke:none;stroke-width:1px;stroke-linecap:butt;stroke-linejoin:miter;stroke-opacity:1">
      <path
         style="fill:#ff1900;fill-opacity:1"
         id="path6330-9-9-1-9"
         d="m 597.67987,368.4407 q 3.96484,0 6.23047,4.58985 0.82031,1.8164 0.85937,2.77344 l 0.0586,0 q 0.68359,-3.16407 2.48047,-5.25391 2.10937,-2.10938 4.74609,-2.10938 4.08203,0 6.54297,4.375 0.625,1.6211 0.625,3.04688 0,4.88281 -4.0625,9.31641 l -10.33203,12.40234 -0.11719,0 -10.97656,-13.45703 q -3.28125,-4.00391 -3.28125,-8.26172 0,-4.12109 3.88672,-6.54297 1.64062,-0.87891 3.33984,-0.87891 z"
         inkscape:connector-curvature="0" />
    </g>
    <g
       transform="matrix(1.471813,0,0,1.4822276,-324.94283,-1267.5287)"
       id="text6302-4-7-7-0-93"
       style="font-style:normal;font-weight:normal;font-size:40px;line-height:125%;font-family:sans-serif;letter-spacing:0px;word-spacing:0px;display:inline;fill:#ff1900;fill-opacity:1;stroke:none;stroke-width:1px;stroke-linecap:butt;stroke-linejoin:miter;stroke-opacity:1">
      <path
         style="fill:#ff1900;fill-opacity:1"
         id="path6330-9-1-2-4-6"
         d="m 597.67987,368.4407 q 3.96484,0 6.23047,4.58985 0.82031,1.8164 0.85937,2.77344 l 0.0586,0 q 0.68359,-3.16407 2.48047,-5.25391 2.10937,-2.10938 4.74609,-2.10938 4.08203,0 6.54297,4.375 0.625,1.6211 0.625,3.04688 0,4.88281 -4.0625,9.31641 l -10.33203,12.40234 -0.11719,0 -10.97656,-13.45703 q -3.28125,-4.00391 -3.28125,-8.26172 0,-4.12109 3.88672,-6.54297 1.64062,-0.87891 3.33984,-0.87891 z"
         inkscape:connector-curvature="0" />
    </g>
    <g
       transform="matrix(1.471813,0,0,1.4822276,-234.87116,-1267.5287)"
       id="text6302-4-7-7-0-2-0"
       style="font-style:normal;font-weight:normal;font-size:40px;line-height:125%;font-family:sans-serif;letter-spacing:0px;word-spacing:0px;display:inline;fill:#ff1900;fill-opacity:1;stroke:none;stroke-width:1px;stroke-linecap:butt;stroke-linejoin:miter;stroke-opacity:1">
      <path
         style="fill:#ff1900;fill-opacity:1"
         id="path6330-9-1-2-4-2-5"
         d="m 597.67987,368.4407 q 3.96484,0 6.23047,4.58985 0.82031,1.8164 0.85937,2.77344 l 0.0586,0 q 0.68359,-3.16407 2.48047,-5.25391 2.10937,-2.10938 4.74609,-2.10938 4.08203,0 6.54297,4.375 0.625,1.6211 0.625,3.04688 0,4.88281 -4.0625,9.31641 l -10.33203,12.40234 -0.11719,0 -10.97656,-13.45703 q -3.28125,-4.00391 -3.28125,-8.26172 0,-4.12109 3.88672,-6.54297 1.64062,-0.87891 3.33984,-0.87891 z"
         inkscape:connector-curvature="0" />
    </g>
    <g
       transform="matrix(-1.471813,0,0,-1.4822276,1455.4742,56.25312)"
       id="text6302-4-7-7-0-20-0"
       style="font-style:normal;font-weight:normal;font-size:40px;line-height:125%;font-family:sans-serif;letter-spacing:0px;word-spacing:0px;display:inline;fill:#ff1900;fill-opacity:1;stroke:none;stroke-width:1px;stroke-linecap:butt;stroke-linejoin:miter;stroke-opacity:1">
      <path
         style="fill:#ff1900;fill-opacity:1"
         id="path6330-9-1-2-4-5-2"
         d="m 597.67987,368.4407 q 3.96484,0 6.23047,4.58985 0.82031,1.8164 0.85937,2.77344 l 0.0586,0 q 0.68359,-3.16407 2.48047,-5.25391 2.10937,-2.10938 4.74609,-2.10938 4.08203,0 6.54297,4.375 0.625,1.6211 0.625,3.04688 0,4.88281 -4.0625,9.31641 l -10.33203,12.40234 -0.11719,0 -10.97656,-13.45703 q -3.28125,-4.00391 -3.28125,-8.26172 0,-4.12109 3.88672,-6.54297 1.64062,-0.87891 3.33984,-0.87891 z"
         inkscape:connector-curvature="0" />
    </g>
    <g
       transform="matrix(-1.471813,0,0,-1.4822276,1545.546,56.25312)"
       id="text6302-4-7-7-0-2-5-9"
       style="font-style:normal;font-weight:normal;font-size:40px;line-height:125%;font-family:sans-serif;letter-spacing:0px;word-spacing:0px;display:inline;fill:#ff1900;fill-opacity:1;stroke:none;stroke-width:1px;stroke-linecap:butt;stroke-linejoin:miter;stroke-opacity:1">
      <path
         style="fill:#ff1900;fill-opacity:1"
         id="path6330-9-1-2-4-2-2-4"
         d="m 597.67987,368.4407 q 3.96484,0 6.23047,4.58985 0.82031,1.8164 0.85937,2.77344 l 0.0586,0 q 0.68359,-3.16407 2.48047,-5.25391 2.10937,-2.10938 4.74609,-2.10938 4.08203,0 6.54297,4.375 0.625,1.6211 0.625,3.04688 0,4.88281 -4.0625,9.31641 l -10.33203,12.40234 -0.11719,0 -10.97656,-13.45703 q -3.28125,-4.00391 -3.28125,-8.26172 0,-4.12109 3.88672,-6.54297 1.64062,-0.87891 3.33984,-0.87891 z"
         inkscape:connector-curvature="0" />
    </g>
    <g
       transform="matrix(1.471813,0,0,1.4822276,-324.94283,-1173.3473)"
       id="text6302-4-7-7-0-9-3"
       style="font-style:normal;font-weight:normal;font-size:40px;line-height:125%;font-family:sans-serif;letter-spacing:0px;word-spacing:0px;display:inline;fill:#ff1900;fill-opacity:1;stroke:none;stroke-width:1px;stroke-linecap:butt;stroke-linejoin:miter;stroke-opacity:1">
      <path
         style="fill:#ff1900;fill-opacity:1"
         id="path6330-9-1-2-4-0-5"
         d="m 597.67987,368.4407 q 3.96484,0 6.23047,4.58985 0.82031,1.8164 0.85937,2.77344 l 0.0586,0 q 0.68359,-3.16407 2.48047,-5.25391 2.10937,-2.10938 4.74609,-2.10938 4.08203,0 6.54297,4.375 0.625,1.6211 0.625,3.04688 0,4.88281 -4.0625,9.31641 l -10.33203,12.40234 -0.11719,0 -10.97656,-13.45703 q -3.28125,-4.00391 -3.28125,-8.26172 0,-4.12109 3.88672,-6.54297 1.64062,-0.87891 3.33984,-0.87891 z"
         inkscape:connector-curvature="0" />
    </g>
    <g
       transform="matrix(1.471813,0,0,1.4822276,-234.87116,-1173.3473)"
       id="text6302-4-7-7-0-2-2-1"
       style="font-style:normal;font-weight:normal;font-size:40px;line-height:125%;font-family:sans-serif;letter-spacing:0px;word-spacing:0px;display:inline;fill:#ff1900;fill-opacity:1;stroke:none;stroke-width:1px;stroke-linecap:butt;stroke-linejoin:miter;stroke-opacity:1">
      <path
         style="fill:#ff1900;fill-opacity:1"
         id="path6330-9-1-2-4-2-8-7"
         d="m 597.67987,368.4407 q 3.96484,0 6.23047,4.58985 0.82031,1.8164 0.85937,2.77344 l 0.0586,0 q 0.68359,-3.16407 2.48047,-5.25391 2.10937,-2.10938 4.74609,-2.10938 4.08203,0 6.54297,4.375 0.625,1.6211 0.625,3.04688 0,4.88281 -4.0625,9.31641 l -10.33203,12.40234 -0.11719,0 -10.97656,-13.45703 q -3.28125,-4.00391 -3.28125,-8.26172 0,-4.12109 3.88672,-6.54297 1.64062,-0.87891 3.33984,-0.87891 z"
         inkscape:connector-curvature="0" />
    </g>
    <g
       transform="matrix(1.471813,0,0,1.4822276,-279.90704,-1220.438)"
       id="text6302-4-7-7-0-2-2-3-4"
       style="font-style:normal;font-weight:normal;font-size:40px;line-height:125%;font-family:sans-serif;letter-spacing:0px;word-spacing:0px;display:inline;fill:#ff1900;fill-opacity:1;stroke:none;stroke-width:1px;stroke-linecap:butt;stroke-linejoin:miter;stroke-opacity:1">
      <path
         style="fill:#ff1900;fill-opacity:1"
         id="path6330-9-1-2-4-2-8-8-3"
         d="m 597.67987,368.4407 q 3.96484,0 6.23047,4.58985 0.82031,1.8164 0.85937,2.77344 l 0.0586,0 q 0.68359,-3.16407 2.48047,-5.25391 2.10937,-2.10938 4.74609,-2.10938 4.08203,0 6.54297,4.375 0.625,1.6211 0.625,3.04688 0,4.88281 -4.0625,9.31641 l -10.33203,12.40234 -0.11719,0 -10.97656,-13.45703 q -3.28125,-4.00391 -3.28125,-8.26172 0,-4.12109 3.88672,-6.54297 1.64062,-0.87891 3.33984,-0.87891 z"
         inkscape:connector-curvature="0" />
    </g>
    <g
       transform="matrix(-1.471813,0,0,-1.4822276,1500.51,9.16242)"
       id="text6302-4-7-7-0-2-2-3-0-1"
       style="font-style:normal;font-weight:normal;font-size:40px;line-height:125%;font-family:sans-serif;letter-spacing:0px;word-spacing:0px;display:inline;fill:#ff1900;fill-opacity:1;stroke:none;stroke-width:1px;stroke-linecap:butt;stroke-linejoin:miter;stroke-opacity:1">
      <path
         style="fill:#ff1900;fill-opacity:1"
         id="path6330-9-1-2-4-2-8-8-4-4"
         d="m 597.67987,368.4407 q 3.96484,0 6.23047,4.58985 0.82031,1.8164 0.85937,2.77344 l 0.0586,0 q 0.68359,-3.16407 2.48047,-5.25391 2.10937,-2.10938 4.74609,-2.10938 4.08203,0 6.54297,4.375 0.625,1.6211 0.625,3.04688 0,4.88281 -4.0625,9.31641 l -10.33203,12.40234 -0.11719,0 -10.97656,-13.45703 q -3.28125,-4.00391 -3.28125,-8.26172 0,-4.12109 3.88672,-6.54297 1.64062,-0.87891 3.33984,-0.87891 z"
         inkscape:connector-curvature="0" />
    </g>
  </g>
</svg>
